%YAML 1.1
%TAG !u! tag:unity3d.com,2011:
--- !u!114 &11400000
MonoBehaviour:
  m_ObjectHideFlags: 0
  m_CorrespondingSourceObject: {fileID: 0}
  m_PrefabInstance: {fileID: 0}
  m_PrefabAsset: {fileID: 0}
  m_GameObject: {fileID: 0}
  m_Enabled: 1
  m_EditorHideFlags: 0
  m_Script: {fileID: 11500000, guid: c7d4a3c96c106864086efd1fc6deb4ec, type: 3}
  m_Name: Double Pink Chair
  m_EditorClassIdentifier: 
  _name: Double Yellow Chair
  chairColor: 6
  chairType: 1
  prefab: {fileID: 3987749410893474580, guid: 67d1ed320f08fc1499d3e60887f5fceb, type: 3}
