%YAML 1.1
%TAG !u! tag:unity3d.com,2011:
--- !u!21 &2100000
Material:
  serializedVersion: 8
  m_ObjectHideFlags: 0
  m_CorrespondingSourceObject: {fileID: 0}
  m_PrefabInstance: {fileID: 0}
  m_PrefabAsset: {fileID: 0}
  m_Name: Mega Toon Tilemap 01
  m_Shader: {fileID: 4800000, guid: ef3178aabaab247448c46c904e37bf43, type: 3}
  m_Parent: {fileID: 2100000, guid: d4007296e5edd5f449f7bc7d5501c209, type: 2}
  m_ModifiedSerializedProperties: 0
  m_ValidKeywords:
  - TCP2_REFLECTIONS_FRESNEL
  - TCP2_RIM_LIGHTING_LIGHTMASK
  - TCP2_SHADOW_LIGHT_COLOR
  m_InvalidKeywords: []
  m_LightmapFlags: 4
  m_EnableInstancingVariants: 0
  m_DoubleSidedGI: 0
  m_CustomRenderQueue: -1
  stringTagMap: {}
  disabledShaderPasses: []
  m_LockedProperties: 
  m_SavedProperties:
    serializedVersion: 3
    m_TexEnvs:
    - _BaseMap:
        m_Texture: {fileID: 10309, guid: 0000000000000000f000000000000000, type: 0}
        m_Scale: {x: 1, y: 1}
        m_Offset: {x: 0, y: 0}
    - _MainTex:
        m_Texture: {fileID: 10309, guid: 0000000000000000f000000000000000, type: 0}
        m_Scale: {x: 1, y: 1}
        m_Offset: {x: 0, y: 0}
    m_Ints: []
    m_Floats:
    - _Glossiness: 0
    - _OutlineWidth: 0.34
    - _RampSmoothing: 0
    m_Colors:
    - _BaseColor: {r: 0.745283, g: 0.745283, b: 0.745283, a: 1}
  m_BuildTextureStacks: []
