%YAML 1.1
%TAG !u! tag:unity3d.com,2011:
--- !u!114 &11400000
MonoBehaviour:
  m_ObjectHideFlags: 0
  m_CorrespondingSourceObject: {fileID: 0}
  m_PrefabInstance: {fileID: 0}
  m_PrefabAsset: {fileID: 0}
  m_GameObject: {fileID: 0}
  m_Enabled: 1
  m_EditorHideFlags: 0
  m_Script: {fileID: 11500000, guid: c7d4a3c96c106864086efd1fc6deb4ec, type: 3}
  m_Name: Single Blue Chair
  m_EditorClassIdentifier: 
  _name: Single Blue Chair
  chairColor: 2
  chairType: 0
  prefab: {fileID: 3987749410893474580, guid: b1d3785605c800643a5f27785e0a3c1b, type: 3}
