%YAML 1.1
%TAG !u! tag:unity3d.com,2011:
--- !u!114 &11400000
MonoBehaviour:
  m_ObjectHideFlags: 0
  m_CorrespondingSourceObject: {fileID: 0}
  m_PrefabInstance: {fileID: 0}
  m_PrefabAsset: {fileID: 0}
  m_GameObject: {fileID: 0}
  m_Enabled: 1
  m_EditorHideFlags: 0
  m_Script: {fileID: 11500000, guid: 40f0d9c47fb7b734bad46c7ec7d6d388, type: 3}
  m_Name: GreenCustomer
  m_EditorClassIdentifier: 
  _name: Green Customer
  customerColor: 3
  prefab: {fileID: 4439735364738112, guid: 4b2b832e63053564a890b217322914af, type: 3}
