%YAML 1.1
%TAG !u! tag:unity3d.com,2011:
--- !u!114 &11400000
MonoBehaviour:
  m_ObjectHideFlags: 0
  m_CorrespondingSourceObject: {fileID: 0}
  m_PrefabInstance: {fileID: 0}
  m_PrefabAsset: {fileID: 0}
  m_GameObject: {fileID: 0}
  m_Enabled: 1
  m_EditorHideFlags: 0
  m_Script: {fileID: 11500000, guid: 570e3f179a8ec1a48b79e6d74b82108e, type: 3}
  m_Name: GameGeneralDataSettings
  m_EditorClassIdentifier: 
  BGSoundInGame: {fileID: 8300000, guid: dc6b7806abb1853438e213120ed38c48, type: 3}
  BGSoundOutGame: {fileID: 8300000, guid: 1b05bc0259448d140b78a6ba574fd038, type: 3}
  ClickSound: {fileID: 8300000, guid: 03271240229c33e4d91e4e43937fd35a, type: 3}
  WinSound: {fileID: 8300000, guid: e75fd54da8b52f04fbeaf4ff15d273d7, type: 3}
  LoseSound: {fileID: 8300000, guid: 185da30b7403c314e80a444a7a57eeb6, type: 3}
  mouseDownSound: {fileID: 8300000, guid: 807f8093dc8baa54d817e2ecbd2a94fa, type: 3}
  mouseUpSound: {fileID: 8300000, guid: 807f8093dc8baa54d817e2ecbd2a94fa, type: 3}
  unlockItemSound: {fileID: 8300000, guid: 61ce981041eb60845bc2dbfbebdde5f5, type: 3}
  collectionGoldSound: {fileID: 8300000, guid: 2b14fb9ae6dda2d47b0202a5af064f54, type: 3}
  winEffect: {fileID: 0}
  items:
  - frameItem: {fileID: 21300000, guid: 781977ada8ba19f428195589a3c81525, type: 3}
    iconItem: {fileID: 21300000, guid: ca9b798f2b154454088ce2786e3ffcb6, type: 3}
    itemType: 1
    levelUnlock: 2
    timeUsed: 5
  - frameItem: {fileID: 21300000, guid: 8986a4f7a275fcb42994b4cbf7fd01dc, type: 3}
    iconItem: {fileID: 21300000, guid: 75377f968d0f6bd48a1f439ad924472b, type: 3}
    itemType: 2
    levelUnlock: 4
    timeUsed: 0
  - frameItem: {fileID: 21300000, guid: cfc6878c985aa104b962a4ebae2da75d, type: 3}
    iconItem: {fileID: 21300000, guid: 14aaf2e148bf3be43880ac5f3192a770, type: 3}
    itemType: 3
    levelUnlock: 6
    timeUsed: 0
  idle: {fileID: 7400000, guid: c48bd263852a245418095cc6da15f6ef, type: 2}
  run: {fileID: 7400000, guid: b313a37cc84273a4099c621dd07131b4, type: 2}
  seat: {fileID: 7400000, guid: bca35560b0e1cc24d8319bdd97b54c45, type: 2}
  customerMoveSpeed: 5
  VIPWaitTime: 20
  staticMaterial: {fileID: 2100000, guid: 8bd8592dbe6201f498462a561a21c17e, type: 2}
  tileXMaterial: {fileID: 2100000, guid: 502cd44522af7cd439e6c7aa142269e5, type: 2}
  tileOMaterial: {fileID: 2100000, guid: d4007296e5edd5f449f7bc7d5501c209, type: 2}
  fadeMaterial: {fileID: 2100000, guid: b1482963141cc5c4f82ef6b1fd8f6746, type: 2}
  VIPStaticMaterial: {fileID: 2100000, guid: 479e5b0240116844e92467669fdc60d8, type: 2}
