%YAML 1.1
%TAG !u! tag:unity3d.com,2011:
--- !u!114 &11400000
MonoBehaviour:
  m_ObjectHideFlags: 0
  m_CorrespondingSourceObject: {fileID: 0}
  m_PrefabInstance: {fileID: 0}
  m_PrefabAsset: {fileID: 0}
  m_GameObject: {fileID: 0}
  m_Enabled: 1
  m_EditorHideFlags: 0
  m_Script: {fileID: 11500000, guid: 6cdab1e0424ee524fad0eb356e28df79, type: 3}
  m_Name: Level 23
  m_EditorClassIdentifier: 
  _name: Level 1
  map: {fileID: 7747262602246867782, guid: 7bdb58b7ecfed4d44972a385a7f40d52, type: 3}
  sizeMap:
    x: 6
    z: 8
  totalTime: 180
  generateChairInfos:
  - color: 6
    type: 0
    amount: 3
    amountStatic: 0
  - color: 3
    type: 1
    amount: 2
    amountStatic: 0
  - color: 2
    type: 0
    amount: 5
    amountStatic: 1
  - color: 5
    type: 2
    amount: 1
    amountStatic: 0
  generateObtaclesInfos:
  - color: 4
    type: 1
    amount: 2
    amountStatic: 0
  - color: 4
    type: 0
    amount: 2
    amountStatic: 0
  chairs:
  - color: 6
    type: 0
    angleRotate: 0
    isStatic: 0
    position: {x: 4, y: 0, z: 7}
  - color: 6
    type: 0
    angleRotate: 0
    isStatic: 0
    position: {x: 0, y: 0, z: 2}
  - color: 6
    type: 0
    angleRotate: 0
    isStatic: 0
    position: {x: 1, y: 0, z: 5}
  - color: 3
    type: 1
    angleRotate: 0
    isStatic: 0
    position: {x: 0.5, y: 0, z: 7}
  - color: 3
    type: 1
    angleRotate: 0
    isStatic: 0
    position: {x: 0.5, y: 0, z: 6}
  - color: 2
    type: 0
    angleRotate: 0
    isStatic: 1
    position: {x: 3, y: 0, z: 1}
  - color: 2
    type: 0
    angleRotate: 0
    isStatic: 0
    position: {x: 3, y: 0, z: 5}
  - color: 2
    type: 0
    angleRotate: 0
    isStatic: 0
    position: {x: 2, y: 0, z: 0}
  - color: 2
    type: 0
    angleRotate: 0
    isStatic: 0
    position: {x: 4, y: 0, z: 6}
  - color: 2
    type: 0
    angleRotate: 0
    isStatic: 0
    position: {x: 0, y: 0, z: 0}
  - color: 5
    type: 2
    angleRotate: 0
    isStatic: 0
    position: {x: 3, y: 0, z: 2}
  obstacles:
  - color: 4
    type: 1
    angleRotate: 0
    isStatic: 1
    position: {x: 1.5, y: 0, z: 4}
  - color: 4
    type: 1
    angleRotate: 0
    isStatic: 1
    position: {x: 2.5, y: 0, z: 7}
  - color: 4
    type: 0
    angleRotate: 0
    isStatic: 1
    position: {x: 3, y: 0, z: 3}
  - color: 4
    type: 0
    angleRotate: 0
    isStatic: 1
    position: {x: 1, y: 0, z: 3}
