%YAML 1.1
%TAG !u! tag:unity3d.com,2011:
--- !u!114 &11400000
MonoBehaviour:
  m_ObjectHideFlags: 0
  m_CorrespondingSourceObject: {fileID: 0}
  m_PrefabInstance: {fileID: 0}
  m_PrefabAsset: {fileID: 0}
  m_GameObject: {fileID: 0}
  m_Enabled: 1
  m_EditorHideFlags: 0
  m_Script: {fileID: 11500000, guid: 6cdab1e0424ee524fad0eb356e28df79, type: 3}
  m_Name: Level 2
  m_EditorClassIdentifier: 
  _name: Level 1
  map: {fileID: 7747262602246867782, guid: c4fe377c87069324789dfe00139a2e1e, type: 3}
  sizeMap:
    x: 6
    z: 8
  totalTime: 60
  generateChairInfos:
  - color: 2
    type: 0
    amount: 5
    amountStatic: 0
  generateObtaclesInfos: []
  chairs:
  - color: 2
    type: 0
    angleRotate: 0
    isStatic: 0
    position: {x: 4, y: 0, z: 7}
  - color: 2
    type: 0
    angleRotate: 0
    isStatic: 0
    position: {x: 2, y: 0, z: 6}
  - color: 2
    type: 0
    angleRotate: 0
    isStatic: 0
    position: {x: 2, y: 0, z: 2}
  - color: 2
    type: 0
    angleRotate: 0
    isStatic: 0
    position: {x: 1, y: 0, z: 5}
  - color: 2
    type: 0
    angleRotate: 0
    isStatic: 0
    position: {x: 3, y: 0, z: 5}
  obstacles: []
