%YAML 1.1
%TAG !u! tag:unity3d.com,2011:
--- !u!114 &11400000
MonoBehaviour:
  m_ObjectHideFlags: 0
  m_CorrespondingSourceObject: {fileID: 0}
  m_PrefabInstance: {fileID: 0}
  m_PrefabAsset: {fileID: 0}
  m_GameObject: {fileID: 0}
  m_Enabled: 1
  m_EditorHideFlags: 0
  m_Script: {fileID: 11500000, guid: 6cdab1e0424ee524fad0eb356e28df79, type: 3}
  m_Name: Level 29
  m_EditorClassIdentifier: 
  _name: Level 1
  map: {fileID: 7747262602246867782, guid: ceec33ef7b89e1d4eb848119f3daa353, type: 3}
  sizeMap:
    x: 8
    z: 10
  totalTime: 180
  generateChairInfos:
  - color: 6
    type: 0
    amount: 4
    amountStatic: 0
  - color: 2
    type: 1
    amount: 4
    amountStatic: 1
  - color: 2
    type: 0
    amount: 5
    amountStatic: 1
  - color: 5
    type: 2
    amount: 1
    amountStatic: 0
  - color: 3
    type: 0
    amount: 10
    amountStatic: 0
  - color: 1
    type: 0
    amount: 5
    amountStatic: 0
  generateObtaclesInfos:
  - color: 4
    type: 0
    amount: 6
    amountStatic: 0
  chairs:
  - color: 6
    type: 0
    angleRotate: 0
    isStatic: 0
    position: {x: 6, y: 0, z: 9}
  - color: 6
    type: 0
    angleRotate: 0
    isStatic: 0
    position: {x: 1, y: 0, z: 6}
  - color: 6
    type: 0
    angleRotate: 0
    isStatic: 0
    position: {x: 5, y: 0, z: 9}
  - color: 6
    type: 0
    angleRotate: 0
    isStatic: 0
    position: {x: 4, y: 0, z: 8}
  - color: 2
    type: 1
    angleRotate: 0
    isStatic: 1
    position: {x: 2.5, y: 0, z: 2}
  - color: 2
    type: 1
    angleRotate: 0
    isStatic: 0
    position: {x: 0.5, y: 0, z: 5}
  - color: 2
    type: 1
    angleRotate: 0
    isStatic: 0
    position: {x: 5.5, y: 0, z: 1}
  - color: 2
    type: 1
    angleRotate: 0
    isStatic: 0
    position: {x: 0.5, y: 0, z: 1}
  - color: 2
    type: 0
    angleRotate: 0
    isStatic: 1
    position: {x: 2, y: 0, z: 4}
  - color: 2
    type: 0
    angleRotate: 0
    isStatic: 0
    position: {x: 4, y: 0, z: 0}
  - color: 2
    type: 0
    angleRotate: 0
    isStatic: 0
    position: {x: 6, y: 0, z: 8}
  - color: 2
    type: 0
    angleRotate: 0
    isStatic: 0
    position: {x: 6, y: 0, z: 0}
  - color: 2
    type: 0
    angleRotate: 0
    isStatic: 0
    position: {x: 6, y: 0, z: 7}
  - color: 5
    type: 2
    angleRotate: 0
    isStatic: 0
    position: {x: 2, y: 0, z: 1}
  - color: 3
    type: 0
    angleRotate: 0
    isStatic: 0
    position: {x: 6, y: 0, z: 6}
  - color: 3
    type: 0
    angleRotate: 0
    isStatic: 0
    position: {x: 5, y: 0, z: 4}
  - color: 3
    type: 0
    angleRotate: 0
    isStatic: 0
    position: {x: 3, y: 0, z: 8}
  - color: 3
    type: 0
    angleRotate: 0
    isStatic: 0
    position: {x: 0, y: 0, z: 3}
  - color: 3
    type: 0
    angleRotate: 0
    isStatic: 0
    position: {x: 0, y: 0, z: 2}
  - color: 3
    type: 0
    angleRotate: 0
    isStatic: 0
    position: {x: 2, y: 0, z: 6}
  - color: 3
    type: 0
    angleRotate: 0
    isStatic: 0
    position: {x: 0, y: 0, z: 7}
  - color: 3
    type: 0
    angleRotate: 0
    isStatic: 0
    position: {x: 1, y: 0, z: 7}
  - color: 3
    type: 0
    angleRotate: 0
    isStatic: 0
    position: {x: 5, y: 0, z: 0}
  - color: 3
    type: 0
    angleRotate: 0
    isStatic: 0
    position: {x: 4, y: 0, z: 5}
  - color: 1
    type: 0
    angleRotate: 0
    isStatic: 0
    position: {x: 3, y: 0, z: 9}
  - color: 1
    type: 0
    angleRotate: 0
    isStatic: 0
    position: {x: 3, y: 0, z: 0}
  - color: 1
    type: 0
    angleRotate: 0
    isStatic: 0
    position: {x: 3, y: 0, z: 5}
  - color: 1
    type: 0
    angleRotate: 0
    isStatic: 0
    position: {x: 4, y: 0, z: 7}
  - color: 1
    type: 0
    angleRotate: 0
    isStatic: 0
    position: {x: 6, y: 0, z: 3}
  obstacles:
  - color: 4
    type: 0
    angleRotate: 0
    isStatic: 1
    position: {x: 5, y: 0, z: 7}
  - color: 4
    type: 0
    angleRotate: 0
    isStatic: 1
    position: {x: 1, y: 0, z: 3}
  - color: 4
    type: 0
    angleRotate: 0
    isStatic: 1
    position: {x: 1, y: 0, z: 0}
  - color: 4
    type: 0
    angleRotate: 0
    isStatic: 1
    position: {x: 5, y: 0, z: 3}
  - color: 4
    type: 0
    angleRotate: 0
    isStatic: 1
    position: {x: 0, y: 0, z: 6}
  - color: 4
    type: 0
    angleRotate: 0
    isStatic: 1
    position: {x: 5, y: 0, z: 5}
