%YAML 1.1
%TAG !u! tag:unity3d.com,2011:
--- !u!114 &11400000
MonoBehaviour:
  m_ObjectHideFlags: 0
  m_CorrespondingSourceObject: {fileID: 0}
  m_PrefabInstance: {fileID: 0}
  m_PrefabAsset: {fileID: 0}
  m_GameObject: {fileID: 0}
  m_Enabled: 1
  m_EditorHideFlags: 0
  m_Script: {fileID: 11500000, guid: c7d4a3c96c106864086efd1fc6deb4ec, type: 3}
  m_Name: Single VIP Chair
  m_EditorClassIdentifier: 
  _name: Single VIP Chair
  chairColor: 5
  chairType: 2
  prefab: {fileID: 3987749410893474580, guid: ff42a7f32cb07e24891857f050acae2b, type: 3}
